%YAML 1.1
%TAG !u! tag:unity3d.com,2011:
--- !u!29 &1
OcclusionCullingSettings:
  m_ObjectHideFlags: 0
  serializedVersion: 2
  m_OcclusionBakeSettings:
    smallestOccluder: 5
    smallestHole: 0.25
    backfaceThreshold: 100
  m_SceneGUID: 00000000000000000000000000000000
  m_OcclusionCullingData: {fileID: 0}
--- !u!104 &2
RenderSettings:
  m_ObjectHideFlags: 0
  serializedVersion: 9
  m_Fog: 0
  m_FogColor: {r: 0.5, g: 0.5, b: 0.5, a: 1}
  m_FogMode: 3
  m_FogDensity: 0.01
  m_LinearFogStart: 0
  m_LinearFogEnd: 300
  m_AmbientSkyColor: {r: 0.212, g: 0.227, b: 0.259, a: 1}
  m_AmbientEquatorColor: {r: 0.114, g: 0.125, b: 0.133, a: 1}
  m_AmbientGroundColor: {r: 0.047, g: 0.043, b: 0.035, a: 1}
  m_AmbientIntensity: 1
  m_AmbientMode: 3
  m_SubtractiveShadowColor: {r: 0.42, g: 0.478, b: 0.627, a: 1}
  m_SkyboxMaterial: {fileID: 0}
  m_HaloStrength: 0.5
  m_FlareStrength: 1
  m_FlareFadeSpeed: 3
  m_HaloTexture: {fileID: 0}
  m_SpotCookie: {fileID: 10001, guid: 0000000000000000e000000000000000, type: 0}
  m_DefaultReflectionMode: 0
  m_DefaultReflectionResolution: 128
  m_ReflectionBounces: 1
  m_ReflectionIntensity: 1
  m_CustomReflection: {fileID: 0}
  m_Sun: {fileID: 0}
  m_IndirectSpecularColor: {r: 0, g: 0, b: 0, a: 1}
  m_UseRadianceAmbientProbe: 0
--- !u!157 &3
LightmapSettings:
  m_ObjectHideFlags: 0
  serializedVersion: 11
  m_GIWorkflowMode: 1
  m_GISettings:
    serializedVersion: 2
    m_BounceScale: 1
    m_IndirectOutputScale: 1
    m_AlbedoBoost: 1
    m_EnvironmentLightingMode: 0
    m_EnableBakedLightmaps: 0
    m_EnableRealtimeLightmaps: 0
  m_LightmapEditorSettings:
    serializedVersion: 12
    m_Resolution: 2
    m_BakeResolution: 40
    m_AtlasSize: 1024
    m_AO: 0
    m_AOMaxDistance: 1
    m_CompAOExponent: 1
    m_CompAOExponentDirect: 0
    m_ExtractAmbientOcclusion: 0
    m_Padding: 2
    m_LightmapParameters: {fileID: 0}
    m_LightmapsBakeMode: 1
    m_TextureCompression: 1
    m_FinalGather: 0
    m_FinalGatherFiltering: 1
    m_FinalGatherRayCount: 256
    m_ReflectionCompression: 2
    m_MixedBakeMode: 2
    m_BakeBackend: 0
    m_PVRSampling: 1
    m_PVRDirectSampleCount: 32
    m_PVRSampleCount: 500
    m_PVRBounces: 2
    m_PVREnvironmentSampleCount: 500
    m_PVREnvironmentReferencePointCount: 2048
    m_PVRFilteringMode: 2
    m_PVRDenoiserTypeDirect: 0
    m_PVRDenoiserTypeIndirect: 0
    m_PVRDenoiserTypeAO: 0
    m_PVRFilterTypeDirect: 0
    m_PVRFilterTypeIndirect: 0
    m_PVRFilterTypeAO: 0
    m_PVREnvironmentMIS: 0
    m_PVRCulling: 1
    m_PVRFilteringGaussRadiusDirect: 1
    m_PVRFilteringGaussRadiusIndirect: 5
    m_PVRFilteringGaussRadiusAO: 2
    m_PVRFilteringAtrousPositionSigmaDirect: 0.5
    m_PVRFilteringAtrousPositionSigmaIndirect: 2
    m_PVRFilteringAtrousPositionSigmaAO: 1
    m_ExportTrainingData: 0
    m_TrainingDataDestination: TrainingData
    m_LightProbeSampleCountMultiplier: 4
  m_LightingDataAsset: {fileID: 0}
  m_UseShadowmask: 1
--- !u!196 &4
NavMeshSettings:
  serializedVersion: 2
  m_ObjectHideFlags: 0
  m_BuildSettings:
    serializedVersion: 2
    agentTypeID: 0
    agentRadius: 0.5
    agentHeight: 2
    agentSlope: 45
    agentClimb: 0.4
    ledgeDropHeight: 0
    maxJumpAcrossDistance: 0
    minRegionArea: 2
    manualCellSize: 0
    cellSize: 0.16666667
    manualTileSize: 0
    tileSize: 256
    accuratePlacement: 0
    debug:
      m_Flags: 0
  m_NavMeshData: {fileID: 0}
--- !u!1001 &94808257
PrefabInstance:
  m_ObjectHideFlags: 0
  serializedVersion: 2
  m_Modification:
    m_TransformParent: {fileID: 1140491014}
    m_Modifications:
    - target: {fileID: 5512039170047778969, guid: 6befc5b2fcc87374ea576bd16ca36f10,
        type: 3}
      propertyPath: m_Sprite
      value: 
      objectReference: {fileID: 0}
    - target: {fileID: 5512039170047778969, guid: 6befc5b2fcc87374ea576bd16ca36f10,
        type: 3}
      propertyPath: m_WasSpriteAssigned
      value: 0
      objectReference: {fileID: 0}
    - target: {fileID: 5512039170047778970, guid: 6befc5b2fcc87374ea576bd16ca36f10,
        type: 3}
      propertyPath: m_RootOrder
      value: 1
      objectReference: {fileID: 0}
    - target: {fileID: 5512039170047778970, guid: 6befc5b2fcc87374ea576bd16ca36f10,
        type: 3}
      propertyPath: m_LocalScale.x
      value: 3
      objectReference: {fileID: 0}
    - target: {fileID: 5512039170047778970, guid: 6befc5b2fcc87374ea576bd16ca36f10,
        type: 3}
      propertyPath: m_LocalScale.y
      value: 3
      objectReference: {fileID: 0}
    - target: {fileID: 5512039170047778970, guid: 6befc5b2fcc87374ea576bd16ca36f10,
        type: 3}
      propertyPath: m_LocalPosition.x
      value: 0
      objectReference: {fileID: 0}
    - target: {fileID: 5512039170047778970, guid: 6befc5b2fcc87374ea576bd16ca36f10,
        type: 3}
      propertyPath: m_LocalPosition.y
      value: 1.55
      objectReference: {fileID: 0}
    - target: {fileID: 5512039170047778970, guid: 6befc5b2fcc87374ea576bd16ca36f10,
        type: 3}
      propertyPath: m_LocalPosition.z
      value: 0
      objectReference: {fileID: 0}
    - target: {fileID: 5512039170047778970, guid: 6befc5b2fcc87374ea576bd16ca36f10,
        type: 3}
      propertyPath: m_LocalRotation.w
      value: 1
      objectReference: {fileID: 0}
    - target: {fileID: 5512039170047778970, guid: 6befc5b2fcc87374ea576bd16ca36f10,
        type: 3}
      propertyPath: m_LocalRotation.x
      value: -0
      objectReference: {fileID: 0}
    - target: {fileID: 5512039170047778970, guid: 6befc5b2fcc87374ea576bd16ca36f10,
        type: 3}
      propertyPath: m_LocalRotation.y
      value: -0
      objectReference: {fileID: 0}
    - target: {fileID: 5512039170047778970, guid: 6befc5b2fcc87374ea576bd16ca36f10,
        type: 3}
      propertyPath: m_LocalRotation.z
      value: -0
      objectReference: {fileID: 0}
    - target: {fileID: 5512039170047778970, guid: 6befc5b2fcc87374ea576bd16ca36f10,
        type: 3}
      propertyPath: m_LocalEulerAnglesHint.x
      value: 0
      objectReference: {fileID: 0}
    - target: {fileID: 5512039170047778970, guid: 6befc5b2fcc87374ea576bd16ca36f10,
        type: 3}
      propertyPath: m_LocalEulerAnglesHint.y
      value: 0
      objectReference: {fileID: 0}
    - target: {fileID: 5512039170047778970, guid: 6befc5b2fcc87374ea576bd16ca36f10,
        type: 3}
      propertyPath: m_LocalEulerAnglesHint.z
      value: 0
      objectReference: {fileID: 0}
    - target: {fileID: 5512039170047778974, guid: 6befc5b2fcc87374ea576bd16ca36f10,
        type: 3}
      propertyPath: m_Icon
      value: 
      objectReference: {fileID: -5487077368411116049, guid: 0000000000000000d000000000000000,
        type: 0}
    - target: {fileID: 5512039170047778974, guid: 6befc5b2fcc87374ea576bd16ca36f10,
        type: 3}
      propertyPath: m_Name
      value: Card 2
      objectReference: {fileID: 0}
    - target: {fileID: 5512039170047778975, guid: 6befc5b2fcc87374ea576bd16ca36f10,
        type: 3}
      propertyPath: _selectCard.m_PersistentCalls.m_Calls.Array.data[0].m_Target
      value: 
      objectReference: {fileID: 314118921}
    m_RemovedComponents: []
  m_SourcePrefab: {fileID: 100100000, guid: 6befc5b2fcc87374ea576bd16ca36f10, type: 3}
--- !u!4 &94808258 stripped
Transform:
  m_CorrespondingSourceObject: {fileID: 5512039170047778970, guid: 6befc5b2fcc87374ea576bd16ca36f10,
    type: 3}
  m_PrefabInstance: {fileID: 94808257}
  m_PrefabAsset: {fileID: 0}
--- !u!114 &131597579 stripped
MonoBehaviour:
  m_CorrespondingSourceObject: {fileID: 5512039170047778975, guid: 6befc5b2fcc87374ea576bd16ca36f10,
    type: 3}
  m_PrefabInstance: {fileID: 816808838}
  m_PrefabAsset: {fileID: 0}
  m_GameObject: {fileID: 0}
  m_Enabled: 1
  m_EditorHideFlags: 0
  m_Script: {fileID: 11500000, guid: ea1fba74964e056418b7984c4b9d8f7c, type: 3}
  m_Name: 
  m_EditorClassIdentifier: 
--- !u!114 &152845858 stripped
MonoBehaviour:
  m_CorrespondingSourceObject: {fileID: 5512039170047778975, guid: 6befc5b2fcc87374ea576bd16ca36f10,
    type: 3}
  m_PrefabInstance: {fileID: 189287755}
  m_PrefabAsset: {fileID: 0}
  m_GameObject: {fileID: 0}
  m_Enabled: 1
  m_EditorHideFlags: 0
  m_Script: {fileID: 11500000, guid: ea1fba74964e056418b7984c4b9d8f7c, type: 3}
  m_Name: 
  m_EditorClassIdentifier: 
--- !u!114 &181350555 stripped
MonoBehaviour:
  m_CorrespondingSourceObject: {fileID: 5512039170047778975, guid: 6befc5b2fcc87374ea576bd16ca36f10,
    type: 3}
  m_PrefabInstance: {fileID: 5512039169875218436}
  m_PrefabAsset: {fileID: 0}
  m_GameObject: {fileID: 0}
  m_Enabled: 1
  m_EditorHideFlags: 0
  m_Script: {fileID: 11500000, guid: ea1fba74964e056418b7984c4b9d8f7c, type: 3}
  m_Name: 
  m_EditorClassIdentifier: 
--- !u!4 &181350558 stripped
Transform:
  m_CorrespondingSourceObject: {fileID: 5512039170047778970, guid: 6befc5b2fcc87374ea576bd16ca36f10,
    type: 3}
  m_PrefabInstance: {fileID: 5512039169875218436}
  m_PrefabAsset: {fileID: 0}
--- !u!1001 &189287755
PrefabInstance:
  m_ObjectHideFlags: 0
  serializedVersion: 2
  m_Modification:
    m_TransformParent: {fileID: 1140491014}
    m_Modifications:
    - target: {fileID: 5512039170047778969, guid: 6befc5b2fcc87374ea576bd16ca36f10,
        type: 3}
      propertyPath: m_Sprite
      value: 
      objectReference: {fileID: 0}
    - target: {fileID: 5512039170047778969, guid: 6befc5b2fcc87374ea576bd16ca36f10,
        type: 3}
      propertyPath: m_WasSpriteAssigned
      value: 0
      objectReference: {fileID: 0}
    - target: {fileID: 5512039170047778970, guid: 6befc5b2fcc87374ea576bd16ca36f10,
        type: 3}
      propertyPath: m_RootOrder
      value: 3
      objectReference: {fileID: 0}
    - target: {fileID: 5512039170047778970, guid: 6befc5b2fcc87374ea576bd16ca36f10,
        type: 3}
      propertyPath: m_LocalScale.x
      value: 3
      objectReference: {fileID: 0}
    - target: {fileID: 5512039170047778970, guid: 6befc5b2fcc87374ea576bd16ca36f10,
        type: 3}
      propertyPath: m_LocalScale.y
      value: 3
      objectReference: {fileID: 0}
    - target: {fileID: 5512039170047778970, guid: 6befc5b2fcc87374ea576bd16ca36f10,
        type: 3}
      propertyPath: m_LocalPosition.x
      value: -3.1
      objectReference: {fileID: 0}
    - target: {fileID: 5512039170047778970, guid: 6befc5b2fcc87374ea576bd16ca36f10,
        type: 3}
      propertyPath: m_LocalPosition.y
      value: -1.55
      objectReference: {fileID: 0}
    - target: {fileID: 5512039170047778970, guid: 6befc5b2fcc87374ea576bd16ca36f10,
        type: 3}
      propertyPath: m_LocalPosition.z
      value: 0
      objectReference: {fileID: 0}
    - target: {fileID: 5512039170047778970, guid: 6befc5b2fcc87374ea576bd16ca36f10,
        type: 3}
      propertyPath: m_LocalRotation.w
      value: 1
      objectReference: {fileID: 0}
    - target: {fileID: 5512039170047778970, guid: 6befc5b2fcc87374ea576bd16ca36f10,
        type: 3}
      propertyPath: m_LocalRotation.x
      value: -0
      objectReference: {fileID: 0}
    - target: {fileID: 5512039170047778970, guid: 6befc5b2fcc87374ea576bd16ca36f10,
        type: 3}
      propertyPath: m_LocalRotation.y
      value: -0
      objectReference: {fileID: 0}
    - target: {fileID: 5512039170047778970, guid: 6befc5b2fcc87374ea576bd16ca36f10,
        type: 3}
      propertyPath: m_LocalRotation.z
      value: -0
      objectReference: {fileID: 0}
    - target: {fileID: 5512039170047778970, guid: 6befc5b2fcc87374ea576bd16ca36f10,
        type: 3}
      propertyPath: m_LocalEulerAnglesHint.x
      value: 0
      objectReference: {fileID: 0}
    - target: {fileID: 5512039170047778970, guid: 6befc5b2fcc87374ea576bd16ca36f10,
        type: 3}
      propertyPath: m_LocalEulerAnglesHint.y
      value: 0
      objectReference: {fileID: 0}
    - target: {fileID: 5512039170047778970, guid: 6befc5b2fcc87374ea576bd16ca36f10,
        type: 3}
      propertyPath: m_LocalEulerAnglesHint.z
      value: 0
      objectReference: {fileID: 0}
    - target: {fileID: 5512039170047778974, guid: 6befc5b2fcc87374ea576bd16ca36f10,
        type: 3}
      propertyPath: m_Icon
      value: 
      objectReference: {fileID: -5487077368411116049, guid: 0000000000000000d000000000000000,
        type: 0}
    - target: {fileID: 5512039170047778974, guid: 6befc5b2fcc87374ea576bd16ca36f10,
        type: 3}
      propertyPath: m_Name
      value: Card 4
      objectReference: {fileID: 0}
    - target: {fileID: 5512039170047778975, guid: 6befc5b2fcc87374ea576bd16ca36f10,
        type: 3}
      propertyPath: _selectCard.m_PersistentCalls.m_Calls.Array.data[0].m_Target
      value: 
      objectReference: {fileID: 314118921}
    m_RemovedComponents: []
  m_SourcePrefab: {fileID: 100100000, guid: 6befc5b2fcc87374ea576bd16ca36f10, type: 3}
--- !u!4 &189287756 stripped
Transform:
  m_CorrespondingSourceObject: {fileID: 5512039170047778970, guid: 6befc5b2fcc87374ea576bd16ca36f10,
    type: 3}
  m_PrefabInstance: {fileID: 189287755}
  m_PrefabAsset: {fileID: 0}
--- !u!1001 &221093595
PrefabInstance:
  m_ObjectHideFlags: 0
  serializedVersion: 2
  m_Modification:
    m_TransformParent: {fileID: 1140491014}
    m_Modifications:
    - target: {fileID: 5512039170047778969, guid: 6befc5b2fcc87374ea576bd16ca36f10,
        type: 3}
      propertyPath: m_Sprite
      value: 
      objectReference: {fileID: 0}
    - target: {fileID: 5512039170047778969, guid: 6befc5b2fcc87374ea576bd16ca36f10,
        type: 3}
      propertyPath: m_WasSpriteAssigned
      value: 0
      objectReference: {fileID: 0}
    - target: {fileID: 5512039170047778970, guid: 6befc5b2fcc87374ea576bd16ca36f10,
        type: 3}
      propertyPath: m_RootOrder
      value: 5
      objectReference: {fileID: 0}
    - target: {fileID: 5512039170047778970, guid: 6befc5b2fcc87374ea576bd16ca36f10,
        type: 3}
      propertyPath: m_LocalScale.x
      value: 3
      objectReference: {fileID: 0}
    - target: {fileID: 5512039170047778970, guid: 6befc5b2fcc87374ea576bd16ca36f10,
        type: 3}
      propertyPath: m_LocalScale.y
      value: 3
      objectReference: {fileID: 0}
    - target: {fileID: 5512039170047778970, guid: 6befc5b2fcc87374ea576bd16ca36f10,
        type: 3}
      propertyPath: m_LocalPosition.x
      value: 3.1
      objectReference: {fileID: 0}
    - target: {fileID: 5512039170047778970, guid: 6befc5b2fcc87374ea576bd16ca36f10,
        type: 3}
      propertyPath: m_LocalPosition.y
      value: -1.55
      objectReference: {fileID: 0}
    - target: {fileID: 5512039170047778970, guid: 6befc5b2fcc87374ea576bd16ca36f10,
        type: 3}
      propertyPath: m_LocalPosition.z
      value: 0
      objectReference: {fileID: 0}
    - target: {fileID: 5512039170047778970, guid: 6befc5b2fcc87374ea576bd16ca36f10,
        type: 3}
      propertyPath: m_LocalRotation.w
      value: 1
      objectReference: {fileID: 0}
    - target: {fileID: 5512039170047778970, guid: 6befc5b2fcc87374ea576bd16ca36f10,
        type: 3}
      propertyPath: m_LocalRotation.x
      value: -0
      objectReference: {fileID: 0}
    - target: {fileID: 5512039170047778970, guid: 6befc5b2fcc87374ea576bd16ca36f10,
        type: 3}
      propertyPath: m_LocalRotation.y
      value: -0
      objectReference: {fileID: 0}
    - target: {fileID: 5512039170047778970, guid: 6befc5b2fcc87374ea576bd16ca36f10,
        type: 3}
      propertyPath: m_LocalRotation.z
      value: -0
      objectReference: {fileID: 0}
    - target: {fileID: 5512039170047778970, guid: 6befc5b2fcc87374ea576bd16ca36f10,
        type: 3}
      propertyPath: m_LocalEulerAnglesHint.x
      value: 0
      objectReference: {fileID: 0}
    - target: {fileID: 5512039170047778970, guid: 6befc5b2fcc87374ea576bd16ca36f10,
        type: 3}
      propertyPath: m_LocalEulerAnglesHint.y
      value: 0
      objectReference: {fileID: 0}
    - target: {fileID: 5512039170047778970, guid: 6befc5b2fcc87374ea576bd16ca36f10,
        type: 3}
      propertyPath: m_LocalEulerAnglesHint.z
      value: 0
      objectReference: {fileID: 0}
    - target: {fileID: 5512039170047778974, guid: 6befc5b2fcc87374ea576bd16ca36f10,
        type: 3}
      propertyPath: m_Icon
      value: 
      objectReference: {fileID: -5487077368411116049, guid: 0000000000000000d000000000000000,
        type: 0}
    - target: {fileID: 5512039170047778974, guid: 6befc5b2fcc87374ea576bd16ca36f10,
        type: 3}
      propertyPath: m_Name
      value: Card 6
      objectReference: {fileID: 0}
    - target: {fileID: 5512039170047778975, guid: 6befc5b2fcc87374ea576bd16ca36f10,
        type: 3}
      propertyPath: _selectCard.m_PersistentCalls.m_Calls.Array.data[0].m_Target
      value: 
      objectReference: {fileID: 314118921}
    m_RemovedComponents: []
  m_SourcePrefab: {fileID: 100100000, guid: 6befc5b2fcc87374ea576bd16ca36f10, type: 3}
--- !u!4 &221093596 stripped
Transform:
  m_CorrespondingSourceObject: {fileID: 5512039170047778970, guid: 6befc5b2fcc87374ea576bd16ca36f10,
    type: 3}
  m_PrefabInstance: {fileID: 221093595}
  m_PrefabAsset: {fileID: 0}
--- !u!114 &293053798 stripped
MonoBehaviour:
  m_CorrespondingSourceObject: {fileID: 5512039170047778975, guid: 6befc5b2fcc87374ea576bd16ca36f10,
    type: 3}
  m_PrefabInstance: {fileID: 94808257}
  m_PrefabAsset: {fileID: 0}
  m_GameObject: {fileID: 0}
  m_Enabled: 1
  m_EditorHideFlags: 0
  m_Script: {fileID: 11500000, guid: ea1fba74964e056418b7984c4b9d8f7c, type: 3}
  m_Name: 
  m_EditorClassIdentifier: 
--- !u!1 &314118918
GameObject:
  m_ObjectHideFlags: 0
  m_CorrespondingSourceObject: {fileID: 0}
  m_PrefabInstance: {fileID: 0}
  m_PrefabAsset: {fileID: 0}
  serializedVersion: 6
  m_Component:
  - component: {fileID: 314118920}
  - component: {fileID: 314118921}
  m_Layer: 0
  m_Name: SelectionChecker
  m_TagString: Untagged
  m_Icon: {fileID: 0}
  m_NavMeshLayer: 0
  m_StaticEditorFlags: 0
  m_IsActive: 1
--- !u!4 &314118920
Transform:
  m_ObjectHideFlags: 0
  m_CorrespondingSourceObject: {fileID: 0}
  m_PrefabInstance: {fileID: 0}
  m_PrefabAsset: {fileID: 0}
  m_GameObject: {fileID: 314118918}
  m_LocalRotation: {x: 0, y: 0, z: 0, w: 1}
  m_LocalPosition: {x: 0, y: 0, z: 0}
  m_LocalScale: {x: 1, y: 1, z: 1}
  m_Children: []
  m_Father: {fileID: 0}
  m_RootOrder: 2
  m_LocalEulerAnglesHint: {x: 0, y: 0, z: 0}
--- !u!114 &314118921
MonoBehaviour:
  m_ObjectHideFlags: 0
  m_CorrespondingSourceObject: {fileID: 0}
  m_PrefabInstance: {fileID: 0}
  m_PrefabAsset: {fileID: 0}
  m_GameObject: {fileID: 314118918}
  m_Enabled: 1
  m_EditorHideFlags: 0
  m_Script: {fileID: 11500000, guid: daf2920396dd312479bba26dc4319469, type: 3}
  m_Name: 
  m_EditorClassIdentifier: 
  _cardManager: {fileID: 1140491013}
--- !u!1 &373010216
GameObject:
  m_ObjectHideFlags: 0
  m_CorrespondingSourceObject: {fileID: 0}
  m_PrefabInstance: {fileID: 0}
  m_PrefabAsset: {fileID: 0}
  serializedVersion: 6
  m_Component:
  - component: {fileID: 373010219}
  - component: {fileID: 373010218}
  - component: {fileID: 373010217}
  m_Layer: 0
  m_Name: EventSystem
  m_TagString: Untagged
  m_Icon: {fileID: 0}
  m_NavMeshLayer: 0
  m_StaticEditorFlags: 0
  m_IsActive: 1
--- !u!114 &373010217
MonoBehaviour:
  m_ObjectHideFlags: 0
  m_CorrespondingSourceObject: {fileID: 0}
  m_PrefabInstance: {fileID: 0}
  m_PrefabAsset: {fileID: 0}
  m_GameObject: {fileID: 373010216}
  m_Enabled: 1
  m_EditorHideFlags: 0
  m_Script: {fileID: 11500000, guid: 4f231c4fb786f3946a6b90b886c48677, type: 3}
  m_Name: 
  m_EditorClassIdentifier: 
  m_HorizontalAxis: Horizontal
  m_VerticalAxis: Vertical
  m_SubmitButton: Submit
  m_CancelButton: Cancel
  m_InputActionsPerSecond: 10
  m_RepeatDelay: 0.5
  m_ForceModuleActive: 0
--- !u!114 &373010218
MonoBehaviour:
  m_ObjectHideFlags: 0
  m_CorrespondingSourceObject: {fileID: 0}
  m_PrefabInstance: {fileID: 0}
  m_PrefabAsset: {fileID: 0}
  m_GameObject: {fileID: 373010216}
  m_Enabled: 1
  m_EditorHideFlags: 0
  m_Script: {fileID: 11500000, guid: 76c392e42b5098c458856cdf6ecaaaa1, type: 3}
  m_Name: 
  m_EditorClassIdentifier: 
  m_FirstSelected: {fileID: 0}
  m_sendNavigationEvents: 1
  m_DragThreshold: 10
--- !u!4 &373010219
Transform:
  m_ObjectHideFlags: 0
  m_CorrespondingSourceObject: {fileID: 0}
  m_PrefabInstance: {fileID: 0}
  m_PrefabAsset: {fileID: 0}
  m_GameObject: {fileID: 373010216}
  m_LocalRotation: {x: 0, y: 0, z: 0, w: 1}
  m_LocalPosition: {x: 0, y: 0, z: 0}
  m_LocalScale: {x: 1, y: 1, z: 1}
  m_Children: []
  m_Father: {fileID: 0}
  m_RootOrder: 4
  m_LocalEulerAnglesHint: {x: 0, y: 0, z: 0}
--- !u!1 &399067253
GameObject:
  m_ObjectHideFlags: 0
  m_CorrespondingSourceObject: {fileID: 0}
  m_PrefabInstance: {fileID: 0}
  m_PrefabAsset: {fileID: 0}
  serializedVersion: 6
  m_Component:
  - component: {fileID: 399067254}
  - component: {fileID: 399067257}
  - component: {fileID: 399067256}
  - component: {fileID: 399067255}
  - component: {fileID: 399067258}
  m_Layer: 5
  m_Name: Score
  m_TagString: Untagged
  m_Icon: {fileID: 0}
  m_NavMeshLayer: 0
  m_StaticEditorFlags: 0
  m_IsActive: 1
--- !u!224 &399067254
RectTransform:
  m_ObjectHideFlags: 0
  m_CorrespondingSourceObject: {fileID: 0}
  m_PrefabInstance: {fileID: 0}
  m_PrefabAsset: {fileID: 0}
  m_GameObject: {fileID: 399067253}
  m_LocalRotation: {x: 0, y: 0, z: 0, w: 1}
  m_LocalPosition: {x: 0, y: 0, z: 0}
  m_LocalScale: {x: 1, y: 1, z: 1}
  m_Children: []
  m_Father: {fileID: 950265211}
  m_RootOrder: 0
  m_LocalEulerAnglesHint: {x: 0, y: 0, z: 0}
  m_AnchorMin: {x: 1, y: 1}
  m_AnchorMax: {x: 1, y: 1}
  m_AnchoredPosition: {x: -190, y: -52.899994}
  m_SizeDelta: {x: 338.8207, y: 64.16954}
  m_Pivot: {x: 0.5, y: 0.5}
--- !u!114 &399067255
MonoBehaviour:
  m_ObjectHideFlags: 0
  m_CorrespondingSourceObject: {fileID: 0}
  m_PrefabInstance: {fileID: 0}
  m_PrefabAsset: {fileID: 0}
  m_GameObject: {fileID: 399067253}
  m_Enabled: 1
  m_EditorHideFlags: 0
  m_Script: {fileID: 11500000, guid: e19747de3f5aca642ab2be37e372fb86, type: 3}
  m_Name: 
  m_EditorClassIdentifier: 
  m_EffectColor: {r: 0, g: 0, b: 0, a: 0.5}
  m_EffectDistance: {x: 1, y: -1}
  m_UseGraphicAlpha: 1
--- !u!114 &399067256
MonoBehaviour:
  m_ObjectHideFlags: 0
  m_CorrespondingSourceObject: {fileID: 0}
  m_PrefabInstance: {fileID: 0}
  m_PrefabAsset: {fileID: 0}
  m_GameObject: {fileID: 399067253}
  m_Enabled: 1
  m_EditorHideFlags: 0
  m_Script: {fileID: 11500000, guid: 5f7201a12d95ffc409449d95f23cf332, type: 3}
  m_Name: 
  m_EditorClassIdentifier: 
  m_Material: {fileID: 0}
  m_Color: {r: 1, g: 1, b: 1, a: 1}
  m_RaycastTarget: 1
  m_Maskable: 1
  m_OnCullStateChanged:
    m_PersistentCalls:
      m_Calls: []
  m_FontData:
    m_Font: {fileID: 10102, guid: 0000000000000000e000000000000000, type: 0}
    m_FontSize: 50
    m_FontStyle: 0
    m_BestFit: 1
    m_MinSize: 40
    m_MaxSize: 50
    m_Alignment: 5
    m_AlignByGeometry: 0
    m_RichText: 1
    m_HorizontalOverflow: 0
    m_VerticalOverflow: 0
    m_LineSpacing: 1
  m_Text: 0
--- !u!222 &399067257
CanvasRenderer:
  m_ObjectHideFlags: 0
  m_CorrespondingSourceObject: {fileID: 0}
  m_PrefabInstance: {fileID: 0}
  m_PrefabAsset: {fileID: 0}
  m_GameObject: {fileID: 399067253}
  m_CullTransparentMesh: 0
--- !u!114 &399067258
MonoBehaviour:
  m_ObjectHideFlags: 0
  m_CorrespondingSourceObject: {fileID: 0}
  m_PrefabInstance: {fileID: 0}
  m_PrefabAsset: {fileID: 0}
  m_GameObject: {fileID: 399067253}
  m_Enabled: 1
  m_EditorHideFlags: 0
  m_Script: {fileID: 11500000, guid: 1d32b9a367f067246976d265cb57a3fb, type: 3}
  m_Name: 
  m_EditorClassIdentifier: 
  _score: {fileID: 399067256}
--- !u!1 &519420028
GameObject:
  m_ObjectHideFlags: 0
  m_CorrespondingSourceObject: {fileID: 0}
  m_PrefabInstance: {fileID: 0}
  m_PrefabAsset: {fileID: 0}
  serializedVersion: 6
  m_Component:
  - component: {fileID: 519420032}
  - component: {fileID: 519420031}
  - component: {fileID: 519420029}
  m_Layer: 0
  m_Name: Main Camera
  m_TagString: MainCamera
  m_Icon: {fileID: 0}
  m_NavMeshLayer: 0
  m_StaticEditorFlags: 0
  m_IsActive: 1
--- !u!81 &519420029
AudioListener:
  m_ObjectHideFlags: 0
  m_CorrespondingSourceObject: {fileID: 0}
  m_PrefabInstance: {fileID: 0}
  m_PrefabAsset: {fileID: 0}
  m_GameObject: {fileID: 519420028}
  m_Enabled: 1
--- !u!20 &519420031
Camera:
  m_ObjectHideFlags: 0
  m_CorrespondingSourceObject: {fileID: 0}
  m_PrefabInstance: {fileID: 0}
  m_PrefabAsset: {fileID: 0}
  m_GameObject: {fileID: 519420028}
  m_Enabled: 1
  serializedVersion: 2
  m_ClearFlags: 2
  m_BackGroundColor: {r: 0.19215687, g: 0.3019608, b: 0.4745098, a: 0}
  m_projectionMatrixMode: 1
  m_GateFitMode: 2
  m_FOVAxisMode: 0
  m_SensorSize: {x: 36, y: 24}
  m_LensShift: {x: 0, y: 0}
  m_FocalLength: 50
  m_NormalizedViewPortRect:
    serializedVersion: 2
    x: 0
    y: 0
    width: 1
    height: 1
  near clip plane: 0.3
  far clip plane: 1000
  field of view: 60
  orthographic: 1
  orthographic size: 5
  m_Depth: -1
  m_CullingMask:
    serializedVersion: 2
    m_Bits: 4294967295
  m_RenderingPath: -1
  m_TargetTexture: {fileID: 0}
  m_TargetDisplay: 0
  m_TargetEye: 0
  m_HDR: 1
  m_AllowMSAA: 0
  m_AllowDynamicResolution: 0
  m_ForceIntoRT: 0
  m_OcclusionCulling: 0
  m_StereoConvergence: 10
  m_StereoSeparation: 0.022
--- !u!4 &519420032
Transform:
  m_ObjectHideFlags: 0
  m_CorrespondingSourceObject: {fileID: 0}
  m_PrefabInstance: {fileID: 0}
  m_PrefabAsset: {fileID: 0}
  m_GameObject: {fileID: 519420028}
  m_LocalRotation: {x: 0, y: 0, z: 0, w: 1}
  m_LocalPosition: {x: 0, y: 0, z: -10}
  m_LocalScale: {x: 1, y: 1, z: 1}
  m_Children: []
  m_Father: {fileID: 0}
  m_RootOrder: 0
  m_LocalEulerAnglesHint: {x: 0, y: 0, z: 0}
--- !u!1001 &816808838
PrefabInstance:
  m_ObjectHideFlags: 0
  serializedVersion: 2
  m_Modification:
    m_TransformParent: {fileID: 1140491014}
    m_Modifications:
    - target: {fileID: 5512039170047778969, guid: 6befc5b2fcc87374ea576bd16ca36f10,
        type: 3}
      propertyPath: m_Sprite
      value: 
      objectReference: {fileID: 0}
    - target: {fileID: 5512039170047778969, guid: 6befc5b2fcc87374ea576bd16ca36f10,
        type: 3}
      propertyPath: m_WasSpriteAssigned
      value: 0
      objectReference: {fileID: 0}
    - target: {fileID: 5512039170047778970, guid: 6befc5b2fcc87374ea576bd16ca36f10,
        type: 3}
      propertyPath: m_RootOrder
      value: 2
      objectReference: {fileID: 0}
    - target: {fileID: 5512039170047778970, guid: 6befc5b2fcc87374ea576bd16ca36f10,
        type: 3}
      propertyPath: m_LocalScale.x
      value: 3
      objectReference: {fileID: 0}
    - target: {fileID: 5512039170047778970, guid: 6befc5b2fcc87374ea576bd16ca36f10,
        type: 3}
      propertyPath: m_LocalScale.y
      value: 3
      objectReference: {fileID: 0}
    - target: {fileID: 5512039170047778970, guid: 6befc5b2fcc87374ea576bd16ca36f10,
        type: 3}
      propertyPath: m_LocalPosition.x
      value: 3.1
      objectReference: {fileID: 0}
    - target: {fileID: 5512039170047778970, guid: 6befc5b2fcc87374ea576bd16ca36f10,
        type: 3}
      propertyPath: m_LocalPosition.y
      value: 1.55
      objectReference: {fileID: 0}
    - target: {fileID: 5512039170047778970, guid: 6befc5b2fcc87374ea576bd16ca36f10,
        type: 3}
      propertyPath: m_LocalPosition.z
      value: 0
      objectReference: {fileID: 0}
    - target: {fileID: 5512039170047778970, guid: 6befc5b2fcc87374ea576bd16ca36f10,
        type: 3}
      propertyPath: m_LocalRotation.w
      value: 1
      objectReference: {fileID: 0}
    - target: {fileID: 5512039170047778970, guid: 6befc5b2fcc87374ea576bd16ca36f10,
        type: 3}
      propertyPath: m_LocalRotation.x
      value: -0
      objectReference: {fileID: 0}
    - target: {fileID: 5512039170047778970, guid: 6befc5b2fcc87374ea576bd16ca36f10,
        type: 3}
      propertyPath: m_LocalRotation.y
      value: -0
      objectReference: {fileID: 0}
    - target: {fileID: 5512039170047778970, guid: 6befc5b2fcc87374ea576bd16ca36f10,
        type: 3}
      propertyPath: m_LocalRotation.z
      value: -0
      objectReference: {fileID: 0}
    - target: {fileID: 5512039170047778970, guid: 6befc5b2fcc87374ea576bd16ca36f10,
        type: 3}
      propertyPath: m_LocalEulerAnglesHint.x
      value: 0
      objectReference: {fileID: 0}
    - target: {fileID: 5512039170047778970, guid: 6befc5b2fcc87374ea576bd16ca36f10,
        type: 3}
      propertyPath: m_LocalEulerAnglesHint.y
      value: 0
      objectReference: {fileID: 0}
    - target: {fileID: 5512039170047778970, guid: 6befc5b2fcc87374ea576bd16ca36f10,
        type: 3}
      propertyPath: m_LocalEulerAnglesHint.z
      value: 0
      objectReference: {fileID: 0}
    - target: {fileID: 5512039170047778974, guid: 6befc5b2fcc87374ea576bd16ca36f10,
        type: 3}
      propertyPath: m_Icon
      value: 
      objectReference: {fileID: -5487077368411116049, guid: 0000000000000000d000000000000000,
        type: 0}
    - target: {fileID: 5512039170047778974, guid: 6befc5b2fcc87374ea576bd16ca36f10,
        type: 3}
      propertyPath: m_Name
      value: Card 3
      objectReference: {fileID: 0}
    - target: {fileID: 5512039170047778975, guid: 6befc5b2fcc87374ea576bd16ca36f10,
        type: 3}
      propertyPath: _selectCard.m_PersistentCalls.m_Calls.Array.data[0].m_Target
      value: 
      objectReference: {fileID: 314118921}
    m_RemovedComponents: []
  m_SourcePrefab: {fileID: 100100000, guid: 6befc5b2fcc87374ea576bd16ca36f10, type: 3}
--- !u!4 &816808839 stripped
Transform:
  m_CorrespondingSourceObject: {fileID: 5512039170047778970, guid: 6befc5b2fcc87374ea576bd16ca36f10,
    type: 3}
  m_PrefabInstance: {fileID: 816808838}
  m_PrefabAsset: {fileID: 0}
--- !u!1 &950265207
GameObject:
  m_ObjectHideFlags: 0
  m_CorrespondingSourceObject: {fileID: 0}
  m_PrefabInstance: {fileID: 0}
  m_PrefabAsset: {fileID: 0}
  serializedVersion: 6
  m_Component:
  - component: {fileID: 950265211}
  - component: {fileID: 950265210}
  - component: {fileID: 950265209}
  - component: {fileID: 950265208}
  m_Layer: 5
  m_Name: UI
  m_TagString: Untagged
  m_Icon: {fileID: 0}
  m_NavMeshLayer: 0
  m_StaticEditorFlags: 0
  m_IsActive: 1
--- !u!114 &950265208
MonoBehaviour:
  m_ObjectHideFlags: 0
  m_CorrespondingSourceObject: {fileID: 0}
  m_PrefabInstance: {fileID: 0}
  m_PrefabAsset: {fileID: 0}
  m_GameObject: {fileID: 950265207}
  m_Enabled: 1
  m_EditorHideFlags: 0
  m_Script: {fileID: 11500000, guid: dc42784cf147c0c48a680349fa168899, type: 3}
  m_Name: 
  m_EditorClassIdentifier: 
  m_IgnoreReversedGraphics: 1
  m_BlockingObjects: 0
  m_BlockingMask:
    serializedVersion: 2
    m_Bits: 4294967295
--- !u!114 &950265209
MonoBehaviour:
  m_ObjectHideFlags: 0
  m_CorrespondingSourceObject: {fileID: 0}
  m_PrefabInstance: {fileID: 0}
  m_PrefabAsset: {fileID: 0}
  m_GameObject: {fileID: 950265207}
  m_Enabled: 1
  m_EditorHideFlags: 0
  m_Script: {fileID: 11500000, guid: 0cd44c1031e13a943bb63640046fad76, type: 3}
  m_Name: 
  m_EditorClassIdentifier: 
  m_UiScaleMode: 1
  m_ReferencePixelsPerUnit: 100
  m_ScaleFactor: 1
  m_ReferenceResolution: {x: 1920, y: 1080}
  m_ScreenMatchMode: 0
  m_MatchWidthOrHeight: 0.5
  m_PhysicalUnit: 3
  m_FallbackScreenDPI: 96
  m_DefaultSpriteDPI: 96
  m_DynamicPixelsPerUnit: 1
--- !u!223 &950265210
Canvas:
  m_ObjectHideFlags: 0
  m_CorrespondingSourceObject: {fileID: 0}
  m_PrefabInstance: {fileID: 0}
  m_PrefabAsset: {fileID: 0}
  m_GameObject: {fileID: 950265207}
  m_Enabled: 1
  serializedVersion: 3
  m_RenderMode: 1
  m_Camera: {fileID: 519420031}
  m_PlaneDistance: 100
  m_PixelPerfect: 0
  m_ReceivesEvents: 1
  m_OverrideSorting: 0
  m_OverridePixelPerfect: 0
  m_SortingBucketNormalizedSize: 0
  m_AdditionalShaderChannelsFlag: 0
  m_SortingLayerID: 0
  m_SortingOrder: 0
  m_TargetDisplay: 0
--- !u!224 &950265211
RectTransform:
  m_ObjectHideFlags: 0
  m_CorrespondingSourceObject: {fileID: 0}
  m_PrefabInstance: {fileID: 0}
  m_PrefabAsset: {fileID: 0}
  m_GameObject: {fileID: 950265207}
  m_LocalRotation: {x: 0, y: 0, z: 0, w: 1}
  m_LocalPosition: {x: 0, y: 0, z: 0}
  m_LocalScale: {x: 0, y: 0, z: 0}
  m_Children:
  - {fileID: 399067254}
  m_Father: {fileID: 0}
  m_RootOrder: 3
  m_LocalEulerAnglesHint: {x: 0, y: 0, z: 0}
  m_AnchorMin: {x: 0, y: 0}
  m_AnchorMax: {x: 0, y: 0}
  m_AnchoredPosition: {x: 0, y: 0}
  m_SizeDelta: {x: 0, y: 0}
  m_Pivot: {x: 0, y: 0}
--- !u!1 &1140491012
GameObject:
  m_ObjectHideFlags: 0
  m_CorrespondingSourceObject: {fileID: 0}
  m_PrefabInstance: {fileID: 0}
  m_PrefabAsset: {fileID: 0}
  serializedVersion: 6
  m_Component:
  - component: {fileID: 1140491014}
  - component: {fileID: 1140491013}
  m_Layer: 0
  m_Name: Cards
  m_TagString: Untagged
  m_Icon: {fileID: 0}
  m_NavMeshLayer: 0
  m_StaticEditorFlags: 0
  m_IsActive: 1
--- !u!114 &1140491013
MonoBehaviour:
  m_ObjectHideFlags: 0
  m_CorrespondingSourceObject: {fileID: 0}
  m_PrefabInstance: {fileID: 0}
  m_PrefabAsset: {fileID: 0}
  m_GameObject: {fileID: 1140491012}
  m_Enabled: 1
  m_EditorHideFlags: 0
  m_Script: {fileID: 11500000, guid: 71ad57b4161bdd448b69eb8309309132, type: 3}
  m_Name: 
  m_EditorClassIdentifier: 
  _timeRemember: 5
  _timeShowMistake: 1
  _timeShowCorrectly: 1
  _cards:
  - {fileID: 181350555}
  - {fileID: 293053798}
  - {fileID: 131597579}
  - {fileID: 152845858}
  - {fileID: 2034742551}
  - {fileID: 1578487090}
  _spriteDownloader: {fileID: 1457811866}
  _counter: {fileID: 399067258}
--- !u!4 &1140491014
Transform:
  m_ObjectHideFlags: 0
  m_CorrespondingSourceObject: {fileID: 0}
  m_PrefabInstance: {fileID: 0}
  m_PrefabAsset: {fileID: 0}
  m_GameObject: {fileID: 1140491012}
  m_LocalRotation: {x: 0, y: 0, z: 0, w: 1}
  m_LocalPosition: {x: 0, y: 0, z: 0}
  m_LocalScale: {x: 1, y: 1, z: 1}
  m_Children:
  - {fileID: 181350558}
  - {fileID: 94808258}
  - {fileID: 816808839}
  - {fileID: 189287756}
  - {fileID: 2067313004}
  - {fileID: 221093596}
  m_Father: {fileID: 0}
  m_RootOrder: 1
  m_LocalEulerAnglesHint: {x: 0, y: 0, z: 0}
--- !u!1 &1457811865
GameObject:
  m_ObjectHideFlags: 0
  m_CorrespondingSourceObject: {fileID: 0}
  m_PrefabInstance: {fileID: 0}
  m_PrefabAsset: {fileID: 0}
  serializedVersion: 6
  m_Component:
  - component: {fileID: 1457811867}
  - component: {fileID: 1457811866}
  m_Layer: 0
  m_Name: SpriteDownloader
  m_TagString: Untagged
  m_Icon: {fileID: 0}
  m_NavMeshLayer: 0
  m_StaticEditorFlags: 0
  m_IsActive: 1
--- !u!114 &1457811866
MonoBehaviour:
  m_ObjectHideFlags: 0
  m_CorrespondingSourceObject: {fileID: 0}
  m_PrefabInstance: {fileID: 0}
  m_PrefabAsset: {fileID: 0}
  m_GameObject: {fileID: 1457811865}
  m_Enabled: 1
  m_EditorHideFlags: 0
  m_Script: {fileID: 11500000, guid: f7745a7b4a8a8d442a6602c1fb8993f7, type: 3}
  m_Name: 
  m_EditorClassIdentifier: 
  _cardManager: {fileID: 1140491013}
--- !u!4 &1457811867
Transform:
  m_ObjectHideFlags: 0
  m_CorrespondingSourceObject: {fileID: 0}
  m_PrefabInstance: {fileID: 0}
  m_PrefabAsset: {fileID: 0}
  m_GameObject: {fileID: 1457811865}
  m_LocalRotation: {x: 0, y: 0, z: 0, w: 1}
  m_LocalPosition: {x: 0, y: 0, z: 0}
  m_LocalScale: {x: 1, y: 1, z: 1}
  m_Children: []
  m_Father: {fileID: 0}
  m_RootOrder: 5
  m_LocalEulerAnglesHint: {x: 0, y: 0, z: 0}
--- !u!114 &1578487090 stripped
MonoBehaviour:
  m_CorrespondingSourceObject: {fileID: 5512039170047778975, guid: 6befc5b2fcc87374ea576bd16ca36f10,
    type: 3}
  m_PrefabInstance: {fileID: 221093595}
  m_PrefabAsset: {fileID: 0}
  m_GameObject: {fileID: 0}
  m_Enabled: 1
  m_EditorHideFlags: 0
  m_Script: {fileID: 11500000, guid: ea1fba74964e056418b7984c4b9d8f7c, type: 3}
  m_Name: 
  m_EditorClassIdentifier: 
--- !u!114 &2034742551 stripped
MonoBehaviour:
  m_CorrespondingSourceObject: {fileID: 5512039170047778975, guid: 6befc5b2fcc87374ea576bd16ca36f10,
    type: 3}
  m_PrefabInstance: {fileID: 2067313003}
  m_PrefabAsset: {fileID: 0}
  m_GameObject: {fileID: 0}
  m_Enabled: 1
  m_EditorHideFlags: 0
  m_Script: {fileID: 11500000, guid: ea1fba74964e056418b7984c4b9d8f7c, type: 3}
  m_Name: 
  m_EditorClassIdentifier: 
--- !u!1001 &2067313003
PrefabInstance:
  m_ObjectHideFlags: 0
  serializedVersion: 2
  m_Modification:
    m_TransformParent: {fileID: 1140491014}
    m_Modifications:
    - target: {fileID: 5512039170047778969, guid: 6befc5b2fcc87374ea576bd16ca36f10,
        type: 3}
      propertyPath: m_Sprite
      value: 
      objectReference: {fileID: 0}
    - target: {fileID: 5512039170047778969, guid: 6befc5b2fcc87374ea576bd16ca36f10,
        type: 3}
      propertyPath: m_WasSpriteAssigned
      value: 0
      objectReference: {fileID: 0}
    - target: {fileID: 5512039170047778970, guid: 6befc5b2fcc87374ea576bd16ca36f10,
        type: 3}
      propertyPath: m_RootOrder
      value: 4
      objectReference: {fileID: 0}
    - target: {fileID: 5512039170047778970, guid: 6befc5b2fcc87374ea576bd16ca36f10,
        type: 3}
      propertyPath: m_LocalScale.x
      value: 3
      objectReference: {fileID: 0}
    - target: {fileID: 5512039170047778970, guid: 6befc5b2fcc87374ea576bd16ca36f10,
        type: 3}
      propertyPath: m_LocalScale.y
      value: 3
      objectReference: {fileID: 0}
    - target: {fileID: 5512039170047778970, guid: 6befc5b2fcc87374ea576bd16ca36f10,
        type: 3}
      propertyPath: m_LocalPosition.x
      value: 0
      objectReference: {fileID: 0}
    - target: {fileID: 5512039170047778970, guid: 6befc5b2fcc87374ea576bd16ca36f10,
        type: 3}
      propertyPath: m_LocalPosition.y
      value: -1.55
      objectReference: {fileID: 0}
    - target: {fileID: 5512039170047778970, guid: 6befc5b2fcc87374ea576bd16ca36f10,
        type: 3}
      propertyPath: m_LocalPosition.z
      value: 0
      objectReference: {fileID: 0}
    - target: {fileID: 5512039170047778970, guid: 6befc5b2fcc87374ea576bd16ca36f10,
        type: 3}
      propertyPath: m_LocalRotation.w
      value: 1
      objectReference: {fileID: 0}
    - target: {fileID: 5512039170047778970, guid: 6befc5b2fcc87374ea576bd16ca36f10,
        type: 3}
      propertyPath: m_LocalRotation.x
      value: -0
      objectReference: {fileID: 0}
    - target: {fileID: 5512039170047778970, guid: 6befc5b2fcc87374ea576bd16ca36f10,
        type: 3}
      propertyPath: m_LocalRotation.y
      value: -0
      objectReference: {fileID: 0}
    - target: {fileID: 5512039170047778970, guid: 6befc5b2fcc87374ea576bd16ca36f10,
        type: 3}
      propertyPath: m_LocalRotation.z
      value: -0
      objectReference: {fileID: 0}
    - target: {fileID: 5512039170047778970, guid: 6befc5b2fcc87374ea576bd16ca36f10,
        type: 3}
      propertyPath: m_LocalEulerAnglesHint.x
      value: 0
      objectReference: {fileID: 0}
    - target: {fileID: 5512039170047778970, guid: 6befc5b2fcc87374ea576bd16ca36f10,
        type: 3}
      propertyPath: m_LocalEulerAnglesHint.y
      value: 0
      objectReference: {fileID: 0}
    - target: {fileID: 5512039170047778970, guid: 6befc5b2fcc87374ea576bd16ca36f10,
        type: 3}
      propertyPath: m_LocalEulerAnglesHint.z
      value: 0
      objectReference: {fileID: 0}
    - target: {fileID: 5512039170047778974, guid: 6befc5b2fcc87374ea576bd16ca36f10,
        type: 3}
      propertyPath: m_Icon
      value: 
      objectReference: {fileID: -5487077368411116049, guid: 0000000000000000d000000000000000,
        type: 0}
    - target: {fileID: 5512039170047778974, guid: 6befc5b2fcc87374ea576bd16ca36f10,
        type: 3}
      propertyPath: m_Name
      value: Card 5
      objectReference: {fileID: 0}
    - target: {fileID: 5512039170047778975, guid: 6befc5b2fcc87374ea576bd16ca36f10,
        type: 3}
      propertyPath: _selectCard.m_PersistentCalls.m_Calls.Array.data[0].m_Target
      value: 
      objectReference: {fileID: 314118921}
    m_RemovedComponents: []
  m_SourcePrefab: {fileID: 100100000, guid: 6befc5b2fcc87374ea576bd16ca36f10, type: 3}
--- !u!4 &2067313004 stripped
Transform:
  m_CorrespondingSourceObject: {fileID: 5512039170047778970, guid: 6befc5b2fcc87374ea576bd16ca36f10,
    type: 3}
  m_PrefabInstance: {fileID: 2067313003}
  m_PrefabAsset: {fileID: 0}
--- !u!1001 &5512039169875218436
PrefabInstance:
  m_ObjectHideFlags: 0
  serializedVersion: 2
  m_Modification:
    m_TransformParent: {fileID: 1140491014}
    m_Modifications:
    - target: {fileID: 5512039170047778969, guid: 6befc5b2fcc87374ea576bd16ca36f10,
        type: 3}
      propertyPath: m_Size.x
      value: 1
      objectReference: {fileID: 0}
    - target: {fileID: 5512039170047778969, guid: 6befc5b2fcc87374ea576bd16ca36f10,
        type: 3}
      propertyPath: m_Size.y
      value: 1
      objectReference: {fileID: 0}
    - target: {fileID: 5512039170047778969, guid: 6befc5b2fcc87374ea576bd16ca36f10,
        type: 3}
      propertyPath: m_Sprite
      value: 
      objectReference: {fileID: 0}
    - target: {fileID: 5512039170047778969, guid: 6befc5b2fcc87374ea576bd16ca36f10,
        type: 3}
      propertyPath: m_WasSpriteAssigned
      value: 0
      objectReference: {fileID: 0}
    - target: {fileID: 5512039170047778970, guid: 6befc5b2fcc87374ea576bd16ca36f10,
        type: 3}
      propertyPath: m_RootOrder
      value: 0
      objectReference: {fileID: 0}
    - target: {fileID: 5512039170047778970, guid: 6befc5b2fcc87374ea576bd16ca36f10,
        type: 3}
      propertyPath: m_LocalScale.x
      value: 3
      objectReference: {fileID: 0}
    - target: {fileID: 5512039170047778970, guid: 6befc5b2fcc87374ea576bd16ca36f10,
        type: 3}
      propertyPath: m_LocalScale.y
      value: 3
      objectReference: {fileID: 0}
    - target: {fileID: 5512039170047778970, guid: 6befc5b2fcc87374ea576bd16ca36f10,
        type: 3}
      propertyPath: m_LocalPosition.x
      value: -3.1
      objectReference: {fileID: 0}
    - target: {fileID: 5512039170047778970, guid: 6befc5b2fcc87374ea576bd16ca36f10,
        type: 3}
      propertyPath: m_LocalPosition.y
      value: 1.55
      objectReference: {fileID: 0}
    - target: {fileID: 5512039170047778970, guid: 6befc5b2fcc87374ea576bd16ca36f10,
        type: 3}
      propertyPath: m_LocalPosition.z
      value: 0
      objectReference: {fileID: 0}
    - target: {fileID: 5512039170047778970, guid: 6befc5b2fcc87374ea576bd16ca36f10,
        type: 3}
      propertyPath: m_LocalRotation.w
      value: 1
      objectReference: {fileID: 0}
    - target: {fileID: 5512039170047778970, guid: 6befc5b2fcc87374ea576bd16ca36f10,
        type: 3}
      propertyPath: m_LocalRotation.x
      value: -0
      objectReference: {fileID: 0}
    - target: {fileID: 5512039170047778970, guid: 6befc5b2fcc87374ea576bd16ca36f10,
        type: 3}
      propertyPath: m_LocalRotation.y
      value: -0
      objectReference: {fileID: 0}
    - target: {fileID: 5512039170047778970, guid: 6befc5b2fcc87374ea576bd16ca36f10,
        type: 3}
      propertyPath: m_LocalRotation.z
      value: -0
      objectReference: {fileID: 0}
    - target: {fileID: 5512039170047778970, guid: 6befc5b2fcc87374ea576bd16ca36f10,
        type: 3}
      propertyPath: m_LocalEulerAnglesHint.x
      value: 0
      objectReference: {fileID: 0}
    - target: {fileID: 5512039170047778970, guid: 6befc5b2fcc87374ea576bd16ca36f10,
        type: 3}
      propertyPath: m_LocalEulerAnglesHint.y
      value: 0
      objectReference: {fileID: 0}
    - target: {fileID: 5512039170047778970, guid: 6befc5b2fcc87374ea576bd16ca36f10,
        type: 3}
      propertyPath: m_LocalEulerAnglesHint.z
      value: 0
      objectReference: {fileID: 0}
    - target: {fileID: 5512039170047778974, guid: 6befc5b2fcc87374ea576bd16ca36f10,
        type: 3}
      propertyPath: m_Icon
      value: 
      objectReference: {fileID: -5487077368411116049, guid: 0000000000000000d000000000000000,
        type: 0}
    - target: {fileID: 5512039170047778974, guid: 6befc5b2fcc87374ea576bd16ca36f10,
        type: 3}
      propertyPath: m_Name
      value: Card 1
      objectReference: {fileID: 0}
    - target: {fileID: 5512039170047778975, guid: 6befc5b2fcc87374ea576bd16ca36f10,
        type: 3}
      propertyPath: _selectCard.m_PersistentCalls.m_Calls.Array.data[0].m_Target
      value: 
      objectReference: {fileID: 314118921}
    m_RemovedComponents: []
  m_SourcePrefab: {fileID: 100100000, guid: 6befc5b2fcc87374ea576bd16ca36f10, type: 3}
